22
0
0
0
0
0
0
0
0
0
7
0
0
0
0
0
0
255
0
0
0
0
0
2
0
0
0
0
0
0
4
0
0
0
0
0
171
0
0
0
0
0
172
0
0
0
0
0
170
0
0
0
0
0
215
0
0
0
0
0
216
0
0
0
0
0
210
0
0
0
0
0
240
0
0
0
0
0
255
0
0
0
0
0
0
0
0
0
0
0
0
140
200
1
0
0
0
0
0
0
0
0
0
0
0
2
3
0
0
0
0
0
4
171
172
0
0
0
0
0
173
0
0
0
0
0
215
0
0
0
0
0
216
217
0
0
0
0
0
240
0
0
0
0
0
255
0
0
0
0
0
0
0
0
0
0
0
0
140
200
1
0
0
0
0
0
0
0
0
0
0
0
2
3
4
171
172
173
215
216
217
240
255
0
0
0
0
0
0
0
0
0
0
0
0
140
0
0
0
0
0
200
1
0
0
0
0
0
0
0
0
0
0
0
2
3
4
171
172
173
215
216
217
240
255
0
0
0
0
0
0
0
0
0
0
0
0
140
200
1
0
0
0
0
0
0
0
0
0
0
0
2
3
4
171
172
173
215
216
217
240
255
0
0
0
0
0
5
0
0
0
0
0
0
140
200
1
0
0
0
0
0
6
5
2
3
4
171
172
173
215
216
217
240
255
0
0
0
0
0
5
0
0
0
0
0
5
140
200
1
0
0
0
0
0
5
0
0
0
0
0
